{
  "formatVersion": 1,
  "database": {
    "version": 1,
    "identityHash": "8df3fd3e928a999211b87b3beab78d18",
    "entities": [
      {
        "tableName": "t_calculation",
        "createSql": "CREATE TABLE IF NOT EXISTS `${TABLE_NAME}` (`id` TEXT NOT NULL, `input` TEXT, `result` REAL, `photo_file_path` TEXT, `photo_file_id` TEXT, `created_by` TEXT, `created_time` INTEGER, `updated_by` TEXT, `updated_time` INTEGER, `deleted_by` TEXT, `deleted_time` INTEGER, `synced_status` INTEGER NOT NULL, `synced_time` INTEGER, `is_deleted` INTEGER NOT NULL, `version` INTEGER NOT NULL, PRIMARY KEY(`id`))",
        "fields": [
          {
            "fieldPath": "id",
            "columnName": "id",
            "affinity": "TEXT",
            "notNull": true
          },
          {
            "fieldPath": "input",
            "columnName": "input",
            "affinity": "TEXT",
            "notNull": false
          },
          {
            "fieldPath": "result",
            "columnName": "result",
            "affinity": "REAL",
            "notNull": false
          },
          {
            "fieldPath": "photoFilePath",
            "columnName": "photo_file_path",
            "affinity": "TEXT",
            "notNull": false
          },
          {
            "fieldPath": "photoFileId",
            "columnName": "photo_file_id",
            "affinity": "TEXT",
            "notNull": false
          },
          {
            "fieldPath": "createdBy",
            "columnName": "created_by",
            "affinity": "TEXT",
            "notNull": false
          },
          {
            "fieldPath": "createdTime",
            "columnName": "created_time",
            "affinity": "INTEGER",
            "notNull": false
          },
          {
            "fieldPath": "updatedBy",
            "columnName": "updated_by",
            "affinity": "TEXT",
            "notNull": false
          },
          {
            "fieldPath": "updatedTime",
            "columnName": "updated_time",
            "affinity": "INTEGER",
            "notNull": false
          },
          {
            "fieldPath": "deletedBy",
            "columnName": "deleted_by",
            "affinity": "TEXT",
            "notNull": false
          },
          {
            "fieldPath": "deletedTime",
            "columnName": "deleted_time",
            "affinity": "INTEGER",
            "notNull": false
          },
          {
            "fieldPath": "syncedStatus",
            "columnName": "synced_status",
            "affinity": "INTEGER",
            "notNull": true
          },
          {
            "fieldPath": "syncedTime",
            "columnName": "synced_time",
            "affinity": "INTEGER",
            "notNull": false
          },
          {
            "fieldPath": "isDeleted",
            "columnName": "is_deleted",
            "affinity": "INTEGER",
            "notNull": true
          },
          {
            "fieldPath": "version",
            "columnName": "version",
            "affinity": "INTEGER",
            "notNull": true
          }
        ],
        "primaryKey": {
          "columnNames": [
            "id"
          ],
          "autoGenerate": false
        },
        "indices": [],
        "foreignKeys": []
      },
      {
        "tableName": "t_file_content",
        "createSql": "CREATE TABLE IF NOT EXISTS `${TABLE_NAME}` (`id` TEXT NOT NULL, `filename` TEXT, `local_relative_path` TEXT, `mime_type` TEXT, `size_byte` INTEGER NOT NULL, `created_by` TEXT, `created_time` INTEGER, `updated_by` TEXT, `updated_time` INTEGER, `deleted_by` TEXT, `deleted_time` INTEGER, `synced_status` INTEGER NOT NULL, `synced_time` INTEGER, `is_deleted` INTEGER NOT NULL, `version` INTEGER NOT NULL, PRIMARY KEY(`id`))",
        "fields": [
          {
            "fieldPath": "id",
            "columnName": "id",
            "affinity": "TEXT",
            "notNull": true
          },
          {
            "fieldPath": "filename",
            "columnName": "filename",
            "affinity": "TEXT",
            "notNull": false
          },
          {
            "fieldPath": "localRelativePath",
            "columnName": "local_relative_path",
            "affinity": "TEXT",
            "notNull": false
          },
          {
            "fieldPath": "mimeType",
            "columnName": "mime_type",
            "affinity": "TEXT",
            "notNull": false
          },
          {
            "fieldPath": "sizeByte",
            "columnName": "size_byte",
            "affinity": "INTEGER",
            "notNull": true
          },
          {
            "fieldPath": "createdBy",
            "columnName": "created_by",
            "affinity": "TEXT",
            "notNull": false
          },
          {
            "fieldPath": "createdTime",
            "columnName": "created_time",
            "affinity": "INTEGER",
            "notNull": false
          },
          {
            "fieldPath": "updatedBy",
            "columnName": "updated_by",
            "affinity": "TEXT",
            "notNull": false
          },
          {
            "fieldPath": "updatedTime",
            "columnName": "updated_time",
            "affinity": "INTEGER",
            "notNull": false
          },
          {
            "fieldPath": "deletedBy",
            "columnName": "deleted_by",
            "affinity": "TEXT",
            "notNull": false
          },
          {
            "fieldPath": "deletedTime",
            "columnName": "deleted_time",
            "affinity": "INTEGER",
            "notNull": false
          },
          {
            "fieldPath": "syncedStatus",
            "columnName": "synced_status",
            "affinity": "INTEGER",
            "notNull": true
          },
          {
            "fieldPath": "syncedTime",
            "columnName": "synced_time",
            "affinity": "INTEGER",
            "notNull": false
          },
          {
            "fieldPath": "isDeleted",
            "columnName": "is_deleted",
            "affinity": "INTEGER",
            "notNull": true
          },
          {
            "fieldPath": "version",
            "columnName": "version",
            "affinity": "INTEGER",
            "notNull": true
          }
        ],
        "primaryKey": {
          "columnNames": [
            "id"
          ],
          "autoGenerate": false
        },
        "indices": [],
        "foreignKeys": []
      },
      {
        "tableName": "t_device_log",
        "createSql": "CREATE TABLE IF NOT EXISTS `${TABLE_NAME}` (`id` TEXT NOT NULL, `application_id` TEXT, `git_hash` TEXT, `installation_id` TEXT, `event_type` TEXT, `description` TEXT, `created_by` TEXT, `created_time` INTEGER, `updated_by` TEXT, `updated_time` INTEGER, `deleted_by` TEXT, `deleted_time` INTEGER, `synced_status` INTEGER NOT NULL, `synced_time` INTEGER, `is_deleted` INTEGER NOT NULL, `version` INTEGER NOT NULL, PRIMARY KEY(`id`))",
        "fields": [
          {
            "fieldPath": "id",
            "columnName": "id",
            "affinity": "TEXT",
            "notNull": true
          },
          {
            "fieldPath": "applicationId",
            "columnName": "application_id",
            "affinity": "TEXT",
            "notNull": false
          },
          {
            "fieldPath": "gitHash",
            "columnName": "git_hash",
            "affinity": "TEXT",
            "notNull": false
          },
          {
            "fieldPath": "installationId",
            "columnName": "installation_id",
            "affinity": "TEXT",
            "notNull": false
          },
          {
            "fieldPath": "eventType",
            "columnName": "event_type",
            "affinity": "TEXT",
            "notNull": false
          },
          {
            "fieldPath": "description",
            "columnName": "description",
            "affinity": "TEXT",
            "notNull": false
          },
          {
            "fieldPath": "createdBy",
            "columnName": "created_by",
            "affinity": "TEXT",
            "notNull": false
          },
          {
            "fieldPath": "createdTime",
            "columnName": "created_time",
            "affinity": "INTEGER",
            "notNull": false
          },
          {
            "fieldPath": "updatedBy",
            "columnName": "updated_by",
            "affinity": "TEXT",
            "notNull": false
          },
          {
            "fieldPath": "updatedTime",
            "columnName": "updated_time",
            "affinity": "INTEGER",
            "notNull": false
          },
          {
            "fieldPath": "deletedBy",
            "columnName": "deleted_by",
            "affinity": "TEXT",
            "notNull": false
          },
          {
            "fieldPath": "deletedTime",
            "columnName": "deleted_time",
            "affinity": "INTEGER",
            "notNull": false
          },
          {
            "fieldPath": "syncedStatus",
            "columnName": "synced_status",
            "affinity": "INTEGER",
            "notNull": true
          },
          {
            "fieldPath": "syncedTime",
            "columnName": "synced_time",
            "affinity": "INTEGER",
            "notNull": false
          },
          {
            "fieldPath": "isDeleted",
            "columnName": "is_deleted",
            "affinity": "INTEGER",
            "notNull": true
          },
          {
            "fieldPath": "version",
            "columnName": "version",
            "affinity": "INTEGER",
            "notNull": true
          }
        ],
        "primaryKey": {
          "columnNames": [
            "id"
          ],
          "autoGenerate": false
        },
        "indices": [],
        "foreignKeys": []
      }
    ],
    "views": [],
    "setupQueries": [
      "CREATE TABLE IF NOT EXISTS room_master_table (id INTEGER PRIMARY KEY,identity_hash TEXT)",
      "INSERT OR REPLACE INTO room_master_table (id,identity_hash) VALUES(42, '8df3fd3e928a999211b87b3beab78d18')"
    ]
  }
}